{
    "bucketName": "boombazoobetatest0c5fa9883ed446c28a40a267e717b5",
    "authPolicyName": "s3_amplify_108c7aed",
    "unauthPolicyName": "s3_amplify_108c7aed",
    "authRoleName": {
        "Ref": "AuthRoleName"
    },
    "unauthRoleName": {
        "Ref": "UnauthRoleName"
    },
    "selectedGuestPermissions": [
        "s3:PutObject"
    ],
    "selectedAuthenticatedPermissions": [
        "s3:PutObject",
        "s3:GetObject",
        "s3:ListBucket",
        "s3:DeleteObject"
    ],
    "s3PermissionsAuthenticatedPublic": "s3:PutObject,s3:GetObject,s3:DeleteObject",
    "s3PublicPolicy": "Public_policy_c9d2681e",
    "s3PermissionsAuthenticatedUploads": "s3:PutObject",
    "s3UploadsPolicy": "Uploads_policy_c9d2681e",
    "s3PermissionsAuthenticatedProtected": "s3:PutObject,s3:GetObject,s3:DeleteObject",
    "s3ProtectedPolicy": "Protected_policy_21009079",
    "s3PermissionsAuthenticatedPrivate": "s3:PutObject,s3:GetObject,s3:DeleteObject",
    "s3PrivatePolicy": "Private_policy_21009079",
    "AuthenticatedAllowList": "ALLOW",
    "s3ReadPolicy": "read_policy_c9d2681e",
    "s3PermissionsGuestPublic": "s3:PutObject",
    "s3PermissionsGuestUploads": "s3:PutObject",
    "GuestAllowList": "DISALLOW",
    "triggerFunction": "NONE"
}