{
  "providers": [
    "awscloudformation"
  ],
  "projectName": "BoombazooBetaTest",
  "version": "3.0",
  "frontend": "javascript",
  "javascript": {
    "framework": "react-native",
    "config": {
      "SourceDir": "./",
      "DistributionDir": "/",
      "BuildCommand": "npm run-script build",
      "StartCommand": "npm run-script start"
    }
  }
}